<?xml version="1.0" encoding="UTF-8"?>
<svg xmlns="http://www.w3.org/2000/svg" xmlns:xlink="http://www.w3.org/1999/xlink" width="176pt" height="53pt" viewBox="0 0 176 53" version="1.1">
<defs>
<clipPath id="clip1">
  <path d="M 41 0.617188 L 175.660156 0.617188 L 175.660156 32 L 41 32 Z M 41 0.617188 "/>
</clipPath>
</defs>
<g id="surface1">
<path style=" stroke:none;fill-rule:nonzero;fill:rgb(0%,67.83905%,93.728638%);fill-opacity:1;" d="M 31.105469 21.089844 L 21.308594 21.089844 C 17.828125 21.089844 15.84375 21.609375 15.84375 26.347656 L 15.84375 31.089844 C 15.84375 34.316406 16.792969 36.324219 20.207031 36.324219 L 22.984375 36.324219 C 26.046875 36.324219 26.765625 35.148438 26.765625 32.636719 L 26.765625 27.984375 C 26.765625 26.367188 28.085938 25.046875 29.703125 25.046875 L 35.664062 25.046875 C 37.28125 25.046875 38.601562 26.367188 38.601562 27.984375 L 38.601562 32.316406 C 38.601562 36.308594 41.714844 36 44.394531 36 L 51.511719 36 C 53.832031 36 55.730469 37.898438 55.730469 40.21875 L 55.730469 48.78125 C 55.730469 51.101562 53.832031 53 51.511719 53 L 42.949219 53 C 40.628906 53 38.730469 51.101562 38.730469 48.78125 L 38.730469 41.765625 C 38.730469 38.671875 38.0625 36.886719 34.171875 36.886719 L 31.867188 36.886719 C 29.121094 36.886719 27.308594 37.640625 27.308594 40.984375 L 27.308594 45.363281 C 27.308594 47.007812 25.964844 48.347656 24.324219 48.347656 L 18.269531 48.347656 C 16.625 48.347656 15.285156 47.007812 15.285156 45.363281 L 15.285156 41.28125 C 15.285156 37.4375 13.28125 36.433594 9.542969 36.433594 L 3.929688 36.433594 C 1.769531 36.433594 0 34.664062 0 32.503906 L 0 24.523438 C 0 22.359375 1.769531 20.589844 3.929688 20.589844 L 9.992188 20.589844 C 14.515625 20.589844 15.484375 18.980469 15.484375 15.132812 L 15.484375 5.46875 C 15.484375 3.367188 17.203125 1.648438 19.304688 1.648438 L 31.105469 1.648438 C 33.207031 1.648438 34.925781 3.367188 34.925781 5.46875 L 34.925781 17.269531 C 34.925781 19.367188 33.207031 21.089844 31.105469 21.089844 "/>
<g clip-path="url(#clip1)" clip-rule="nonzero">
<path style=" stroke:none;fill-rule:nonzero;fill:rgb(25.883484%,29.588318%,32.650757%);fill-opacity:1;" d="M 59.59375 16.453125 L 59.59375 19.703125 L 68.136719 19.703125 C 67.996094 21.144531 67.8125 21.699219 67.394531 22.628906 C 65.816406 25.972656 62.148438 28.015625 57.59375 28.015625 C 50.210938 28.015625 45.289062 23.28125 45.289062 16.171875 C 45.289062 9.113281 50.398438 4.097656 57.457031 4.097656 C 59.175781 4.097656 60.894531 4.46875 62.566406 5.214844 C 64.746094 6.191406 65.769531 6.976562 68.042969 9.300781 L 70.367188 6.933594 C 67.765625 4.191406 66.511719 3.261719 63.820312 2.101562 C 61.683594 1.171875 59.453125 0.710938 57.132812 0.710938 C 48.632812 0.710938 41.898438 7.488281 41.898438 16.082031 C 41.898438 25.136719 48.351562 31.40625 57.6875 31.40625 C 61.820312 31.40625 65.164062 30.199219 67.71875 27.738281 C 68.972656 26.53125 69.996094 24.996094 70.644531 23.464844 C 71.527344 21.375 71.761719 20.074219 71.804688 16.453125 Z M 94.535156 0.617188 L 85.292969 22.90625 L 76.839844 1.589844 L 73.542969 1.589844 L 85.246094 31.359375 L 94.582031 8.652344 L 104.007812 31.359375 L 115.386719 1.542969 L 112.136719 1.542969 L 103.867188 22.675781 Z M 122.875 4.84375 L 125.660156 4.84375 C 129.84375 4.84375 132.722656 5.863281 135.042969 8.140625 C 137.085938 10.183594 138.15625 12.921875 138.15625 15.988281 C 138.15625 22.488281 133.277344 27.226562 126.546875 27.226562 L 122.828125 27.226562 L 122.828125 4.84375 Z M 119.625 1.589844 L 119.625 30.523438 L 127.753906 30.523438 C 135.183594 30.523438 141.5 23.835938 141.5 16.082031 C 141.5 7.582031 135.277344 1.589844 126.546875 1.589844 Z M 163.445312 16.453125 L 163.445312 19.703125 L 171.992188 19.703125 C 171.851562 21.144531 171.664062 21.699219 171.246094 22.628906 C 169.667969 25.972656 166 28.015625 161.449219 28.015625 C 154.066406 28.015625 149.144531 23.28125 149.144531 16.171875 C 149.144531 9.113281 154.25 4.097656 161.3125 4.097656 C 163.027344 4.097656 164.746094 4.46875 166.417969 5.214844 C 168.601562 6.191406 169.621094 6.976562 171.898438 9.300781 L 174.222656 6.933594 C 171.621094 4.191406 170.367188 3.261719 167.675781 2.101562 C 165.535156 1.171875 163.308594 0.710938 160.984375 0.710938 C 152.484375 0.710938 145.753906 7.488281 145.753906 16.082031 C 145.753906 25.136719 152.207031 31.40625 161.542969 31.40625 C 165.675781 31.40625 169.019531 30.199219 171.574219 27.738281 C 172.828125 26.53125 173.851562 24.996094 174.5 23.464844 C 175.382812 21.375 175.613281 20.074219 175.660156 16.453125 L 163.445312 16.453125 "/>
</g>
</g>
</svg>
